^D:\OPENGL_LEARNING\OPENGL-LEARNING\X64\DEBUG\SOURCE.OBJ
D:\OPENGL_LEARNING\OPENGL-LEARNING\X64\DEBUG\OPENGL-LEARNING.EXE
D:\OPENGL_LEARNING\OPENGL-LEARNING\X64\DEBUG\OPENGL-LEARNING.ILK
D:\OPENGL_LEARNING\OPENGL-LEARNING\X64\DEBUG\OPENGL-LEARNING.PDB
